<?xml version="1.0" encoding="UTF-8" standalone="yes"?>
<manifest>
   <naam>Werkversie Omgevingsvisie.docx</naam>
   <datum>2019-12-07T13:15:22.477+01:00</datum>
   <colofon index="0">
      <naam>000_Colofon.docx</naam>
      <omgevingswetbesluit id="ovi">omgevingsvisie</omgevingswetbesluit>
      <afbeelding index="1">
         <naam>image_b5645b84d97def9318f5b8f1b7270c53.jpeg</naam>
         <type>jpeg</type>
         <checksum>b5645b84d97def9318f5b8f1b7270c53</checksum>
      </afbeelding>
      <metadata>
         <data name="ID01" value="omgevingsvisie"/>
         <data name="ID01+" value="de omgevingsvisie"/>
         <data name="ID02" value="de"/>
         <data name="ID03" value="ovi"/>
         <data name="ID04" value="0.98.1-kern"/>
         <data name="ID05"
               value="STandaard Officiële Publicaties met ToepassingsProfielen voor OmgevingsDocumenten (STOP/TPOD)"/>
         <data name="ID06" value="PR33"/>
         <data name="ID07" value="Sandra van Wijngaarden"/>
         <data name="ID08"
               value="Wideke Boersma, Bart Huijbers, Satyan Ramlal, Maarten van Rooij, Erik Lubberink"/>
      </metadata>
      <versiehistorie>
         <versie nummer="0.1">
            <wijziging datum="2016-12-22">Eerste versie, globale invulling</wijziging>
         </versie>
         <versie nummer="0.2">
            <wijziging datum="2017-01-25">Uitwerking/verdieping van alle onderdelen.</wijziging>
         </versie>
         <versie nummer="0.6">
            <wijziging datum="2017-01-31">Eindversie van sprint 1 Omgevingsvisie (januari 2017)</wijziging>
         </versie>
         <versie nummer="0.85a">
            <wijziging datum="2017-12-07">TPOD in lijn gebracht met de TPOD’s van de andere Omgevingsdocumenten.</wijziging>
         </versie>
         <versie nummer="0.95">
            <wijziging datum="2018-07-01">Wijziging toelichting over verwijzingen</wijziging>
         </versie>
         <versie nummer="0.96">
            <wijziging datum="2018-09-01">Nieuwe uniforme opmaak, procesmodel aangepast n.a.v. feedback werkgroep, UML update, waardelijsten geïnventariseerd.</wijziging>
         </versie>
         <versie nummer="0.97">
            <wijziging datum="2018-12-20">Lijst met openstaande vragen en issues bijgewerkt, met name de openstaande bespreekpunten op basis van de conclusies en aanbevelingen van de Werkgroep Omgevingsvisie</wijziging>
         </versie>
         <versie nummer="0.98">
            <wijziging datum="2019-07-03">Vrijetekst herschreven, onderwerpgroep toegevoegd, groep toegevoegd, begrippen gesynchroniseerd.</wijziging>
         </versie>
      </versiehistorie>
   </colofon>
   <document index="1">
      <naam>001_Uitgangspunten_voor_de_modellering.docx</naam>
      <omgevingswetbesluit id="bt">basistekst</omgevingswetbesluit>
      <versie>0.98.1-kern</versie>
      <titel>Uitgangspunten voor de modellering</titel>
      <niveau>1</niveau>
      <checksum>70b07588f5bcccc211add9f1c3903d72</checksum>
   </document>
   <document index="2">
      <naam>002_Inleiding.docx</naam>
      <omgevingswetbesluit id="bt">basistekst</omgevingswetbesluit>
      <versie>0.98.1-kern</versie>
      <titel>Inleiding</titel>
      <niveau>2</niveau>
      <checksum>df015b85f32813c167010491ffce24ac</checksum>
   </document>
   <document index="3">
      <naam>003_Aanleiding.docx</naam>
      <omgevingswetbesluit id="bt">basistekst</omgevingswetbesluit>
      <versie>0.98.1-kern</versie>
      <titel>Aanleiding</titel>
      <niveau>3</niveau>
      <checksum>dd201d3238f9a4bc28a91e117175da60</checksum>
   </document>
   <document index="4">
      <naam>004_Nieuw_stelsel_omgevingsrecht.docx</naam>
      <omgevingswetbesluit id="ovi">omgevingsvisie</omgevingswetbesluit>
      <versie>0.98.1-kern</versie>
      <titel>Nieuw stelsel omgevingsrecht</titel>
      <niveau>4</niveau>
      <checksum>2c0b5d6c1b23db8022d104d7256da989</checksum>
   </document>
   <document index="5">
      <naam>005_Landelijke_Voorziening_Bekendmaken_en_Beschikbaarstellen_en_Digitaal_Stelsel_Omgevingswet.docx</naam>
      <omgevingswetbesluit id="ovi">omgevingsvisie</omgevingswetbesluit>
      <versie>0.98.1-kern</versie>
      <titel>Landelijke Voorziening Bekendmaken en Beschikbaarstellen en Digitaal Stelsel Omgevingswet</titel>
      <niveau>4</niveau>
      <checksum>ddadfac31abfbe6a0810fc80ae59597a</checksum>
   </document>
   <document index="6">
      <naam>006_STOP_IMOW_en_TPOD.docx</naam>
      <omgevingswetbesluit id="ovi">omgevingsvisie</omgevingswetbesluit>
      <versie>0.98.1-kern</versie>
      <titel>STOP, IMOW en TPOD</titel>
      <niveau>3</niveau>
      <checksum>300ccaa8b50806104c360e8c0df36e20</checksum>
   </document>
   <document index="7">
      <naam>007_Leeswijzer.docx</naam>
      <omgevingswetbesluit id="ovi">omgevingsvisie</omgevingswetbesluit>
      <versie>0.98.1-kern</versie>
      <titel>Leeswijzer</titel>
      <niveau>3</niveau>
      <checksum>39e561e82eb001c9a561a239bb963eda</checksum>
   </document>
   <document index="8">
      <naam>008_Inhoudelijke_aspecten_van_DOCVARIABLE_ID01.docx</naam>
      <omgevingswetbesluit id="ovi">omgevingsvisie</omgevingswetbesluit>
      <versie>0.98.1-kern</versie>
      <titel>Inhoudelijke aspecten van de omgevingsvisie</titel>
      <niveau>2</niveau>
      <checksum>63728699951b3b9869661bbd8fe39235</checksum>
   </document>
   <document index="9">
      <naam>009_Kenschets_rechtsfiguur.docx</naam>
      <omgevingswetbesluit id="ovi">omgevingsvisie</omgevingswetbesluit>
      <versie>0.98.1-kern</versie>
      <titel>Kenschets rechtsfiguur</titel>
      <niveau>3</niveau>
      <checksum>bb6c329f04eecaa10173ad12dc147b40</checksum>
   </document>
   <document index="10">
      <naam>010_Algemene_kenmerken_DOCVARIABLE_ID01.docx</naam>
      <omgevingswetbesluit id="ovi">omgevingsvisie</omgevingswetbesluit>
      <versie>0.98.1-kern</versie>
      <titel>Algemene kenmerken omgevingsvisie</titel>
      <niveau>3</niveau>
      <checksum>69176cfcea4ed1072cc58bff01697cf5</checksum>
   </document>
   <document index="11">
      <naam>011_De_inhoud_van_DOCVARIABLE_ID01.docx</naam>
      <omgevingswetbesluit id="ovi">omgevingsvisie</omgevingswetbesluit>
      <versie>0.98.1-kern</versie>
      <titel>De inhoud van de omgevingsvisie</titel>
      <niveau>3</niveau>
      <checksum>ebb9cdab060defa0d32dc02cbb31f997</checksum>
   </document>
   <document index="12">
      <naam>012_Regels_en_onderwerpen_DOCVARIABLE_ID01.docx</naam>
      <omgevingswetbesluit id="ovi">omgevingsvisie</omgevingswetbesluit>
      <versie>0.98.1-kern</versie>
      <titel>Regels en onderwerpen omgevingsvisie</titel>
      <niveau>4</niveau>
      <checksum>cbca39e97db7dff809b3d2e64986dee2</checksum>
   </document>
   <document index="13">
      <naam>013_Regels_en_besluiten_die_leiden_tot_wijziging_DOCVARIABLE_ID01.docx</naam>
      <omgevingswetbesluit id="ovi">omgevingsvisie</omgevingswetbesluit>
      <versie>0.98.1-kern</versie>
      <titel>Regels en besluiten die leiden tot wijziging omgevingsvisie</titel>
      <niveau>4</niveau>
      <checksum>b0ce6eb589210d3404f74627c22ba40c</checksum>
   </document>
   <document index="14">
      <naam>014_Omgevingsvergunning_voor_omgevingsplanactiviteit.docx</naam>
      <omgevingswetbesluit id="ovi">omgevingsvisie</omgevingswetbesluit>
      <versie>0.98.1-kern</versie>
      <titel>Omgevingsvergunning voor omgevingsplanactiviteit</titel>
      <niveau>4</niveau>
      <checksum>cf2ba4663aa4920c619d9b4c10dfc529</checksum>
   </document>
   <document index="15">
      <naam>015_Overgangsfase.docx</naam>
      <omgevingswetbesluit id="ovi">omgevingsvisie</omgevingswetbesluit>
      <versie>0.98.1-kern</versie>
      <titel>Overgangsfase</titel>
      <niveau>4</niveau>
      <checksum>6a49ee9eeb090612fb6b7253809a7b39</checksum>
   </document>
   <document index="16">
      <naam>016_Uitgangspunten_voor_de_toepassingsprofielen_voor_omgevingsdocumenten.docx</naam>
      <omgevingswetbesluit id="ovi">omgevingsvisie</omgevingswetbesluit>
      <versie>0.98.1-kern</versie>
      <titel>Uitgangspunten voor de toepassingsprofielen voor omgevingsdocumenten</titel>
      <niveau>2</niveau>
      <checksum>82881766ee600054b5ba20cf53a6a716</checksum>
   </document>
   <document index="17">
      <naam>017_Proces_van_totstandkoming_en_bekendmaking_cq_publicatie_van_omgevingsdocumenten.docx</naam>
      <omgevingswetbesluit id="ovi">omgevingsvisie</omgevingswetbesluit>
      <versie>0.98.1-kern</versie>
      <titel>Proces van totstandkoming en bekendmaking c.q. publicatie van omgevingsdocumenten</titel>
      <niveau>3</niveau>
      <checksum>6b41d7ca59323dd9acbdcbcb4054e164</checksum>
   </document>
   <document index="18">
      <naam>018_Omgevingsdocumenten_met_en_zonder_regels.docx</naam>
      <omgevingswetbesluit id="ovi">omgevingsvisie</omgevingswetbesluit>
      <versie>0.98.1-kern</versie>
      <titel>Omgevingsdocumenten met en zonder regels</titel>
      <niveau>3</niveau>
      <checksum>df29395aeb333ec8305f5eeb2cbc9d8c</checksum>
   </document>
   <document index="19">
      <naam>019_Initieel_besluit_wijzigingsbesluit_en_geconsolideerde_versie.docx</naam>
      <omgevingswetbesluit id="ovi">omgevingsvisie</omgevingswetbesluit>
      <versie>0.98.1-kern</versie>
      <titel>Initieel besluit, wijzigingsbesluit en geconsolideerde versie</titel>
      <niveau>3</niveau>
      <checksum>913ff68c1e86c9abd6a26fa055fa0807</checksum>
   </document>
   <document index="20">
      <naam>020_Annoteren.docx</naam>
      <omgevingswetbesluit id="ovi">omgevingsvisie</omgevingswetbesluit>
      <versie>0.98.1-kern</versie>
      <titel>Annoteren</titel>
      <niveau>3</niveau>
      <checksum>946f966b88d6e4ced205916c55ddcd56</checksum>
   </document>
   <document index="21">
      <naam>021_Waardelijsten.docx</naam>
      <omgevingswetbesluit id="ovi">omgevingsvisie</omgevingswetbesluit>
      <versie>0.98.1-kern</versie>
      <titel>Waardelijsten</titel>
      <niveau>3</niveau>
      <checksum>e4e6385694c8687acfa96f1962e1c9e1</checksum>
   </document>
   <document index="22">
      <naam>022_Presentatiemodel.docx</naam>
      <omgevingswetbesluit id="ovi">omgevingsvisie</omgevingswetbesluit>
      <versie>0.98.1-kern</versie>
      <titel>Presentatiemodel</titel>
      <niveau>3</niveau>
      <checksum>e377f580bfd00a21e2ad7ede33e2fdbe</checksum>
   </document>
   <document index="23">
      <naam>023_Modellering_van_DOCVARIABLE_ID01.docx</naam>
      <omgevingswetbesluit id="ovi">omgevingsvisie</omgevingswetbesluit>
      <versie>0.98.1-kern</versie>
      <titel>Modellering van de omgevingsvisie</titel>
      <niveau>1</niveau>
      <checksum>46e8af5048b591d3086d145a26973057</checksum>
   </document>
   <document index="24">
      <naam>029_Besluit_besluitonderdelen_en_DOCVARIABLE_ID01.docx</naam>
      <omgevingswetbesluit id="bt">basistekst</omgevingswetbesluit>
      <versie>0.98.1-kern</versie>
      <titel>Besluit, besluitonderdelen en omgevingsvisie</titel>
      <niveau>2</niveau>
      <checksum>6de55eb848e97a2be6b773edef1c907b</checksum>
   </document>
   <document index="25">
      <naam>030_Besluit_en_besluitonderdelen.docx</naam>
      <omgevingswetbesluit id="bt">basistekst</omgevingswetbesluit>
      <versie>0.98.1-kern</versie>
      <titel>Besluit en besluitonderdelen</titel>
      <niveau>3</niveau>
      <checksum>9bfa001873a869575d339f22cb7e061e</checksum>
   </document>
   <document index="26">
      <naam>026_Toelichting.docx</naam>
      <omgevingswetbesluit id="ovi">omgevingsvisie</omgevingswetbesluit>
      <versie>0.98.1-kern</versie>
      <titel>Toelichting</titel>
      <niveau>4</niveau>
      <checksum>f07dd7c75f84f0a905cb20b04388bdce</checksum>
      <afbeelding index="1">
         <naam>image_36c0688390a649a62d7ce743d3f4a2c2.png</naam>
         <type>png</type>
         <checksum>36c0688390a649a62d7ce743d3f4a2c2</checksum>
      </afbeelding>
   </document>
   <document index="27">
      <naam>027_Norm.docx</naam>
      <omgevingswetbesluit id="ovi">omgevingsvisie</omgevingswetbesluit>
      <versie>0.98.1-kern</versie>
      <titel>Norm</titel>
      <niveau>4</niveau>
      <checksum>1db50364ebf30f226d15971083f2aa1d</checksum>
   </document>
   <document index="28">
      <naam>028_De_actuele_geldende_versie_van_DOCVARIABLE_ID01.docx</naam>
      <omgevingswetbesluit id="ovi">omgevingsvisie</omgevingswetbesluit>
      <versie>0.98.1-kern</versie>
      <titel>De actuele geldende versie van de omgevingsvisie</titel>
      <niveau>3</niveau>
      <checksum>131307d14e7f7d2bfc6a54b9cfc9a880</checksum>
   </document>
   <document index="29">
      <naam>029_De_geconsolideerde_versie_van_DOCVARIABLE_ID01.docx</naam>
      <omgevingswetbesluit id="ovi">omgevingsvisie</omgevingswetbesluit>
      <versie>0.98.1-kern</versie>
      <titel>De geconsolideerde versie van de omgevingsvisie</titel>
      <niveau>3</niveau>
      <checksum>7474beb4d803a99b665f70b74b1ace5e</checksum>
   </document>
   <document index="30">
      <naam>035_Toepassing_van_het_IMOP-tekstmodel_op_omgevingsdocumenten.docx</naam>
      <omgevingswetbesluit id="bt">basistekst</omgevingswetbesluit>
      <versie>0.98.1-kern</versie>
      <titel>Toepassing van het IMOP-tekstmodel op omgevingsdocumenten</titel>
      <niveau>2</niveau>
      <checksum>df2afa5ee90bc02e9920ffa4adf4c726</checksum>
   </document>
   <document index="31">
      <naam>031_Soorten_tekststructuur.docx</naam>
      <omgevingswetbesluit id="ovi">omgevingsvisie</omgevingswetbesluit>
      <versie>0.98.1-kern</versie>
      <titel>Soorten tekststructuur</titel>
      <niveau>3</niveau>
      <checksum>384bf988edb1378abe52b5820594536a</checksum>
   </document>
   <document index="32">
      <naam>032_Specificatie_van_de_Artikelstructuur_voor_DOCVARIABLE_ID01.docx</naam>
      <omgevingswetbesluit id="ovi">omgevingsvisie</omgevingswetbesluit>
      <versie>0.98.1-kern</versie>
      <titel>Specificatie van de Artikelstructuur voor de omgevingsvisie</titel>
      <niveau>3</niveau>
      <checksum>6efaeeb69b5eb02b1b81c3ab07484c48</checksum>
   </document>
   <document index="33">
      <naam>047_De_Vrijetekststructuur.docx</naam>
      <omgevingswetbesluit id="bt">basistekst</omgevingswetbesluit>
      <versie>0.98.1-kern</versie>
      <titel>De Vrijetekststructuur</titel>
      <niveau>3</niveau>
      <checksum>779f07e482f6ef0e2366ec9e1d834dcf</checksum>
   </document>
   <document index="34">
      <naam>034_Toelichting.docx</naam>
      <omgevingswetbesluit id="ovi">omgevingsvisie</omgevingswetbesluit>
      <versie>0.98.1-kern</versie>
      <titel>Toelichting</titel>
      <niveau>4</niveau>
      <checksum>a627c11a7b6d4d101b658443aea73112</checksum>
   </document>
   <document index="35">
      <naam>035_Norm.docx</naam>
      <omgevingswetbesluit id="ovi">omgevingsvisie</omgevingswetbesluit>
      <versie>0.98.1-kern</versie>
      <titel>Norm</titel>
      <niveau>4</niveau>
      <checksum>bfb588be512400f5cd76a41e341418b1</checksum>
   </document>
   <document index="36">
      <naam>036_Standaardindeling_DOCVARIABLE_ID01.docx</naam>
      <omgevingswetbesluit id="ovi">omgevingsvisie</omgevingswetbesluit>
      <versie>0.98.1-kern</versie>
      <titel>Standaardindeling omgevingsvisie</titel>
      <niveau>3</niveau>
      <checksum>00038d987bf23d7f6a4d4556f8689b27</checksum>
   </document>
   <document index="37">
      <naam>037_Begripsbepalingen.docx</naam>
      <omgevingswetbesluit id="ovi">omgevingsvisie</omgevingswetbesluit>
      <versie>0.98.1-kern</versie>
      <titel>Begripsbepalingen</titel>
      <niveau>3</niveau>
      <checksum>911fd86bc80dfc563dd195cb6dc94f28</checksum>
   </document>
   <document index="38">
      <naam>038_Meet-_en_rekenbepalingen.docx</naam>
      <omgevingswetbesluit id="ovi">omgevingsvisie</omgevingswetbesluit>
      <versie>0.98.1-kern</versie>
      <titel>Meet- en rekenbepalingen</titel>
      <niveau>3</niveau>
      <checksum>705cf1ff82d5043f9e00b97a6bde2140</checksum>
   </document>
   <document index="39">
      <naam>059_Verwijzing.docx</naam>
      <omgevingswetbesluit id="bt">basistekst</omgevingswetbesluit>
      <versie>0.98.1-kern</versie>
      <titel>Verwijzing</titel>
      <niveau>3</niveau>
      <checksum>9cfb0daa1b4d5f825506436ee75d6ab2</checksum>
   </document>
   <document index="40">
      <naam>040_Toelichting.docx</naam>
      <omgevingswetbesluit id="ovi">omgevingsvisie</omgevingswetbesluit>
      <versie>0.98.1-kern</versie>
      <titel>Toelichting</titel>
      <niveau>4</niveau>
      <checksum>9aca5bc6d19d65ed1c7a0de595ea5334</checksum>
   </document>
   <document index="41">
      <naam>041_Norm.docx</naam>
      <omgevingswetbesluit id="ovi">omgevingsvisie</omgevingswetbesluit>
      <versie>0.98.1-kern</versie>
      <titel>Norm</titel>
      <niveau>4</niveau>
      <checksum>823ae2c6d71ebecfcbb3c37a1e2a8ecd</checksum>
   </document>
   <document index="42">
      <naam>042_Thema.docx</naam>
      <omgevingswetbesluit id="ovi">omgevingsvisie</omgevingswetbesluit>
      <versie>0.98.1-kern</versie>
      <titel>Thema</titel>
      <niveau>3</niveau>
      <checksum>68da79d01c9dd08da540882099db00dc</checksum>
   </document>
   <document index="43">
      <naam>043_Toelichting.docx</naam>
      <omgevingswetbesluit id="ovi">omgevingsvisie</omgevingswetbesluit>
      <versie>0.98.1-kern</versie>
      <titel>Toelichting</titel>
      <niveau>4</niveau>
      <checksum>43c9a3842158f376aea5b96de0feb875</checksum>
   </document>
   <document index="44">
      <naam>044_Norm.docx</naam>
      <omgevingswetbesluit id="ovi">omgevingsvisie</omgevingswetbesluit>
      <versie>0.98.1-kern</versie>
      <titel>Norm</titel>
      <niveau>4</niveau>
      <checksum>1cf5de8e9e6df3132b97e46c39c45289</checksum>
   </document>
   <document index="45">
      <naam>045_Groep.docx</naam>
      <omgevingswetbesluit id="ovi">omgevingsvisie</omgevingswetbesluit>
      <versie>0.98.1-kern</versie>
      <titel>Groep</titel>
      <niveau>3</niveau>
      <checksum>fe083a7dd51ad56fd458787c01e435e3</checksum>
   </document>
   <document index="46">
      <naam>046_Toelichting.docx</naam>
      <omgevingswetbesluit id="ovi">omgevingsvisie</omgevingswetbesluit>
      <versie>0.98.1-kern</versie>
      <titel>Toelichting</titel>
      <niveau>4</niveau>
      <checksum>10c5974bfdd923d1746a5590daeb32f0</checksum>
   </document>
   <document index="47">
      <naam>047_Norm.docx</naam>
      <omgevingswetbesluit id="ovi">omgevingsvisie</omgevingswetbesluit>
      <versie>0.98.1-kern</versie>
      <titel>Norm</titel>
      <niveau>4</niveau>
      <checksum>f88e7ea90c76c8fd9695ea679ff41259</checksum>
   </document>
   <document index="48">
      <naam>062_Het_Informatiemodel_Omgevingswet.docx</naam>
      <omgevingswetbesluit id="bt">basistekst</omgevingswetbesluit>
      <versie>0.98.1-kern</versie>
      <titel>Het Informatiemodel Omgevingswet</titel>
      <niveau>2</niveau>
      <checksum>ede6bc72a6c0637c494c31cf296af632</checksum>
   </document>
   <document index="49">
      <naam>049_Inleiding.docx</naam>
      <omgevingswetbesluit id="ovi">omgevingsvisie</omgevingswetbesluit>
      <versie>0.98.1-kern</versie>
      <titel>Inleiding</titel>
      <niveau>3</niveau>
      <checksum>8e8e9f192ee6d7b2e04074c8751d1a7d</checksum>
   </document>
   <document index="50">
      <naam>050_De_hoofdlijnen_van_IMOW_voor_omgevingsdocumenten_met_Vrijetekststructuur.docx</naam>
      <omgevingswetbesluit id="ovi">omgevingsvisie</omgevingswetbesluit>
      <versie>0.98.1-kern</versie>
      <titel>De hoofdlijnen van IMOW voor omgevingsdocumenten met Vrijetekststructuur</titel>
      <niveau>3</niveau>
      <checksum>ef9cd8f4eeff86641ece454e12d06e90</checksum>
   </document>
   <document index="51">
      <naam>051_FormeleInhoud_en_Tekstdeel.docx</naam>
      <omgevingswetbesluit id="ovi">omgevingsvisie</omgevingswetbesluit>
      <versie>0.98.1-kern</versie>
      <titel>FormeleInhoud en Tekstdeel</titel>
      <niveau>4</niveau>
      <checksum>cd9968d0a65a79a09e00096a6e657e41</checksum>
      <afbeelding index="1">
         <naam>image_e35f7c26fad366719fb243414ac8e093.png</naam>
         <type>png</type>
         <checksum>e35f7c26fad366719fb243414ac8e093</checksum>
      </afbeelding>
      <afbeelding index="2">
         <naam>image_3845418082e8e310bc9c76d200d99e16.png</naam>
         <type>png</type>
         <checksum>3845418082e8e310bc9c76d200d99e16</checksum>
      </afbeelding>
   </document>
   <document index="52">
      <naam>052_Informatieobject_en_Noemer.docx</naam>
      <omgevingswetbesluit id="ovi">omgevingsvisie</omgevingswetbesluit>
      <versie>0.98.1-kern</versie>
      <titel>Informatieobject en Noemer</titel>
      <niveau>4</niveau>
      <checksum>4927f2fca741dd34ce5d5d2019af6e59</checksum>
      <afbeelding index="1">
         <naam>image_e87afe25d202c53a7d9bb7724c230e86.png</naam>
         <type>png</type>
         <checksum>e87afe25d202c53a7d9bb7724c230e86</checksum>
      </afbeelding>
   </document>
   <document index="53">
      <naam>053_Locatie.docx</naam>
      <omgevingswetbesluit id="ovi">omgevingsvisie</omgevingswetbesluit>
      <versie>0.98.1-kern</versie>
      <titel>Locatie</titel>
      <niveau>4</niveau>
      <checksum>08fde3e573fe54011b2f4535a89fd23b</checksum>
   </document>
   <document index="54">
      <naam>054_Werkingsgebied.docx</naam>
      <omgevingswetbesluit id="ovi">omgevingsvisie</omgevingswetbesluit>
      <versie>0.98.1-kern</versie>
      <titel>Werkingsgebied</titel>
      <niveau>4</niveau>
      <checksum>a1d7a396fedfaefb5faf0de486f77d10</checksum>
   </document>
   <document index="55">
      <naam>055_Annoteren_met_IMOW-objecten.docx</naam>
      <omgevingswetbesluit id="ovi">omgevingsvisie</omgevingswetbesluit>
      <versie>0.98.1-kern</versie>
      <titel>Annoteren met IMOW-objecten</titel>
      <niveau>4</niveau>
      <checksum>e02c870c72df001f46885c784518c8d7</checksum>
   </document>
   <document index="56">
      <naam>056_Het_IMOW-UML-diagram.docx</naam>
      <omgevingswetbesluit id="ovi">omgevingsvisie</omgevingswetbesluit>
      <versie>0.98.1-kern</versie>
      <titel>Het IMOW-UML-diagram</titel>
      <niveau>3</niveau>
      <checksum>06771ae31cdc79173c2a2a98fc0b063b</checksum>
      <afbeelding index="1">
         <naam>image_7b3e1425392625d63e45c91fdfe64165.png</naam>
         <type>png</type>
         <checksum>7b3e1425392625d63e45c91fdfe64165</checksum>
      </afbeelding>
   </document>
   <document index="57">
      <naam>071_Annoteren_met_IMOW-objecten_de_objecten_en_hun_attributen_in_detail_beschouwd.docx</naam>
      <omgevingswetbesluit id="bt">basistekst</omgevingswetbesluit>
      <versie>0.98.1-kern</versie>
      <titel>Annoteren met IMOW-objecten: de objecten en hun attributen in detail beschouwd</titel>
      <niveau>3</niveau>
      <checksum>f458314535326bbb1b7afbd8df625e73</checksum>
   </document>
   <document index="58">
      <naam>058_Objecttype_Regeltekst.docx</naam>
      <omgevingswetbesluit id="ovi">omgevingsvisie</omgevingswetbesluit>
      <versie>0.98.1-kern</versie>
      <titel>Objecttype Regeltekst</titel>
      <niveau>4</niveau>
      <checksum>c637aff0d63774e102729f2e91d86949</checksum>
   </document>
   <document index="59">
      <naam>059_Objecttype_Juridische_regel.docx</naam>
      <omgevingswetbesluit id="ovi">omgevingsvisie</omgevingswetbesluit>
      <versie>0.98.1-kern</versie>
      <titel>Objecttype Juridische regel</titel>
      <niveau>4</niveau>
      <checksum>ba946bc5d27877788ce7b16c4b460b06</checksum>
   </document>
   <document index="60">
      <naam>060_Objecttype_Tekstdeel.docx</naam>
      <omgevingswetbesluit id="ovi">omgevingsvisie</omgevingswetbesluit>
      <versie>0.98.1-kern</versie>
      <titel>Objecttype Tekstdeel</titel>
      <niveau>4</niveau>
      <checksum>39d2a04c6da9bf7dfab5d6333176fcaa</checksum>
   </document>
   <document index="61">
      <naam>061_Toelichting_op_de_toepassing.docx</naam>
      <omgevingswetbesluit id="ovi">omgevingsvisie</omgevingswetbesluit>
      <versie>0.98.1-kern</versie>
      <titel>Toelichting op de toepassing</titel>
      <niveau>5</niveau>
      <checksum>c04eca34026943552a717a61e979f78c</checksum>
   </document>
   <document index="62">
      <naam>062_Definitie.docx</naam>
      <omgevingswetbesluit id="ovi">omgevingsvisie</omgevingswetbesluit>
      <versie>0.98.1-kern</versie>
      <titel>Definitie</titel>
      <niveau>5</niveau>
      <checksum>0c0e34f76873d0a6c02700554d910f0f</checksum>
   </document>
   <document index="63">
      <naam>063_Norm.docx</naam>
      <omgevingswetbesluit id="ovi">omgevingsvisie</omgevingswetbesluit>
      <versie>0.98.1-kern</versie>
      <titel>Norm</titel>
      <niveau>5</niveau>
      <checksum>d92e303080b92085ac74d49678334645</checksum>
      <afbeelding index="1">
         <naam>image_aa429c48c19a8af46e128e346edbebee.emf</naam>
         <type>emf</type>
         <checksum>aa429c48c19a8af46e128e346edbebee</checksum>
      </afbeelding>
   </document>
   <document index="64">
      <naam>064_Attribuut_regelkwalificatie.docx</naam>
      <omgevingswetbesluit id="ovi">omgevingsvisie</omgevingswetbesluit>
      <versie>0.98.1-kern</versie>
      <titel>Attribuut regelkwalificatie</titel>
      <niveau>4</niveau>
      <checksum>880d819e04e2c64d715078f03453cc20</checksum>
   </document>
   <document index="65">
      <naam>084_Objecttype_Locatie.docx</naam>
      <omgevingswetbesluit id="bt">basistekst</omgevingswetbesluit>
      <versie>0.98.1-kern</versie>
      <titel>Objecttype Locatie</titel>
      <niveau>4</niveau>
      <checksum>f4d50b6bba7c81c6da9d8c3e3d821c93</checksum>
   </document>
   <document index="66">
      <naam>066_Toelichting_op_de_toepassing.docx</naam>
      <omgevingswetbesluit id="ovi">omgevingsvisie</omgevingswetbesluit>
      <versie>0.98.1-kern</versie>
      <titel>Toelichting op de toepassing</titel>
      <niveau>5</niveau>
      <checksum>7b0b968225ab62f153b9c19dafaffd68</checksum>
      <afbeelding index="1">
         <naam>image_5d5449c68c0e644591d334fb3786378a.png</naam>
         <type>png</type>
         <checksum>5d5449c68c0e644591d334fb3786378a</checksum>
      </afbeelding>
      <afbeelding index="2">
         <naam>image_8c9034e8cc34efbb9cc6d2d9924f9a1b.png</naam>
         <type>png</type>
         <checksum>8c9034e8cc34efbb9cc6d2d9924f9a1b</checksum>
      </afbeelding>
      <afbeelding index="3">
         <naam>image_910f315b4bd6afe57661510d6dbb14f4.png</naam>
         <type>png</type>
         <checksum>910f315b4bd6afe57661510d6dbb14f4</checksum>
      </afbeelding>
      <afbeelding index="4">
         <naam>image_806365226bc699bd4b3470bcae3d8920.png</naam>
         <type>png</type>
         <checksum>806365226bc699bd4b3470bcae3d8920</checksum>
      </afbeelding>
   </document>
   <document index="67">
      <naam>086_Definitie.docx</naam>
      <omgevingswetbesluit id="bt">basistekst</omgevingswetbesluit>
      <versie>0.98.1-kern</versie>
      <titel>Definitie</titel>
      <niveau>5</niveau>
      <checksum>26dd09ce6b53547e9b7eec47d809a807</checksum>
   </document>
   <document index="68">
      <naam>068_Norm.docx</naam>
      <omgevingswetbesluit id="ovi">omgevingsvisie</omgevingswetbesluit>
      <versie>0.98.1-kern</versie>
      <titel>Norm</titel>
      <niveau>5</niveau>
      <checksum>b9215d21947c4919d7aeac67dbc9a28b</checksum>
      <afbeelding index="1">
         <naam>image_633415430a163841244f49ae5773fa1d.png</naam>
         <type>png</type>
         <checksum>633415430a163841244f49ae5773fa1d</checksum>
      </afbeelding>
   </document>
   <document index="69">
      <naam>069_Toelichting_op_de_attributen_en_de_waardelijsten.docx</naam>
      <omgevingswetbesluit id="ovi">omgevingsvisie</omgevingswetbesluit>
      <versie>0.98.1-kern</versie>
      <titel>Toelichting op de attributen en de waardelijsten</titel>
      <niveau>5</niveau>
      <checksum>9310389efa9eb757148f7c48c353edd5</checksum>
   </document>
   <document index="70">
      <naam>089_Toepassing_presentatiemodel.docx</naam>
      <omgevingswetbesluit id="bt">basistekst</omgevingswetbesluit>
      <versie>0.98.1-kern</versie>
      <titel>Toepassing presentatiemodel</titel>
      <niveau>5</niveau>
      <checksum>222a843718c1accb556fc34f5fd40f2a</checksum>
   </document>
   <document index="71">
      <naam>071_Objecttype_Activiteit.docx</naam>
      <omgevingswetbesluit id="ovi">omgevingsvisie</omgevingswetbesluit>
      <versie>0.98.1-kern</versie>
      <titel>Objecttype Activiteit</titel>
      <niveau>4</niveau>
      <checksum>5cab130dea348caddbca86b32d3679f0</checksum>
   </document>
   <document index="72">
      <naam>072_Objecttype_Omgevingswaarde.docx</naam>
      <omgevingswetbesluit id="ovi">omgevingsvisie</omgevingswetbesluit>
      <versie>0.98.1-kern</versie>
      <titel>Objecttype Omgevingswaarde</titel>
      <niveau>4</niveau>
      <checksum>1bdf02c1150349c3838dae3ffcb6cf35</checksum>
   </document>
   <document index="73">
      <naam>073_Objecttype_Omgevingsnorm.docx</naam>
      <omgevingswetbesluit id="ovi">omgevingsvisie</omgevingswetbesluit>
      <versie>0.98.1-kern</versie>
      <titel>Objecttype Omgevingsnorm</titel>
      <niveau>4</niveau>
      <checksum>a9aff919df3f7924978da31a39aa0389</checksum>
   </document>
   <document index="74">
      <naam>114_Objecttype_Gebiedsaanwijzing.docx</naam>
      <omgevingswetbesluit id="bt">basistekst</omgevingswetbesluit>
      <versie>0.98.1-kern</versie>
      <titel>Objecttype Gebiedsaanwijzing</titel>
      <niveau>4</niveau>
      <checksum>1f1400dc622a70fb2c884625f8f140fa</checksum>
   </document>
   <document index="75">
      <naam>075_Toelichting_op_de_toepassing.docx</naam>
      <omgevingswetbesluit id="ovi">omgevingsvisie</omgevingswetbesluit>
      <versie>0.98.1-kern</versie>
      <titel>Toelichting op de toepassing</titel>
      <niveau>5</niveau>
      <checksum>457d6b51eab49e83969f5c9279a959f4</checksum>
   </document>
   <document index="76">
      <naam>076_Definitie.docx</naam>
      <omgevingswetbesluit id="ovi">omgevingsvisie</omgevingswetbesluit>
      <versie>0.98.1-kern</versie>
      <titel>Definitie</titel>
      <niveau>5</niveau>
      <checksum>0da8fbf31bb1365ac722a125adfdb618</checksum>
   </document>
   <document index="77">
      <naam>077_Norm.docx</naam>
      <omgevingswetbesluit id="ovi">omgevingsvisie</omgevingswetbesluit>
      <versie>0.98.1-kern</versie>
      <titel>Norm</titel>
      <niveau>5</niveau>
      <checksum>351ed4ee5c671fb29b88f4581c84a765</checksum>
      <afbeelding index="1">
         <naam>image_5ea3c8ae0f7f8497f1234b3f2430f19b.png</naam>
         <type>png</type>
         <checksum>5ea3c8ae0f7f8497f1234b3f2430f19b</checksum>
      </afbeelding>
   </document>
   <document index="78">
      <naam>078_Toelichting_op_de_attributen_en_de_waardelijsten.docx</naam>
      <omgevingswetbesluit id="ovi">omgevingsvisie</omgevingswetbesluit>
      <versie>0.98.1-kern</versie>
      <titel>Toelichting op de attributen en de waardelijsten</titel>
      <niveau>5</niveau>
      <checksum>6a895abea5f0df6a8d45728f9bfaa99e</checksum>
   </document>
   <document index="79">
      <naam>119_Toepassing_presentatiemodel.docx</naam>
      <omgevingswetbesluit id="bt">basistekst</omgevingswetbesluit>
      <versie>0.98.1-kern</versie>
      <titel>Toepassing presentatiemodel</titel>
      <niveau>5</niveau>
      <checksum>bc3444b46074e11234d053bc8af29449</checksum>
   </document>
   <document index="80">
      <naam>080_Gebiedsaanwijzingtype_Functie.docx</naam>
      <omgevingswetbesluit id="ovi">omgevingsvisie</omgevingswetbesluit>
      <versie>0.98.1-kern</versie>
      <titel>Gebiedsaanwijzingtype Functie</titel>
      <niveau>4</niveau>
      <checksum>1669b7fd0b448c8dba753795c5019198</checksum>
   </document>
   <document index="81">
      <naam>081_Gebiedsaanwijzingtype_Beperkingengebied.docx</naam>
      <omgevingswetbesluit id="ovi">omgevingsvisie</omgevingswetbesluit>
      <versie>0.98.1-kern</versie>
      <titel>Gebiedsaanwijzingtype Beperkingengebied</titel>
      <niveau>4</niveau>
      <checksum>d6c5d301e6e2eb2df52c07720e983724</checksum>
   </document>
   <document index="82">
      <naam>082_Objecttype_Hoofdlijn.docx</naam>
      <omgevingswetbesluit id="ovi">omgevingsvisie</omgevingswetbesluit>
      <versie>0.98.1-kern</versie>
      <titel>Objecttype Hoofdlijn</titel>
      <niveau>4</niveau>
      <checksum>69e5d58d887f34bdd3a631ae844aea8c</checksum>
   </document>
   <document index="83">
      <naam>083_Toelichting_op_toepassing.docx</naam>
      <omgevingswetbesluit id="ovi">omgevingsvisie</omgevingswetbesluit>
      <versie>0.98.1-kern</versie>
      <titel>Toelichting op toepassing</titel>
      <niveau>5</niveau>
      <checksum>435fb213fe9b0d574d90f7336b0662b0</checksum>
   </document>
   <document index="84">
      <naam>084_Definitie.docx</naam>
      <omgevingswetbesluit id="ovi">omgevingsvisie</omgevingswetbesluit>
      <versie>0.98.1-kern</versie>
      <titel>Definitie</titel>
      <niveau>5</niveau>
      <checksum>deeda1519d4d69cc855aa3bb47363587</checksum>
   </document>
   <document index="85">
      <naam>085_Norm.docx</naam>
      <omgevingswetbesluit id="ovi">omgevingsvisie</omgevingswetbesluit>
      <versie>0.98.1-kern</versie>
      <titel>Norm</titel>
      <niveau>5</niveau>
      <checksum>d84ad9aed6da258eed6e3cd432963f3d</checksum>
      <afbeelding index="1">
         <naam>image_3e4f36a029e6eb83882c6b822ed62365.png</naam>
         <type>png</type>
         <checksum>3e4f36a029e6eb83882c6b822ed62365</checksum>
      </afbeelding>
   </document>
   <document index="86">
      <naam>086_Toelichting_op_attributen_en_waardelijsten.docx</naam>
      <omgevingswetbesluit id="ovi">omgevingsvisie</omgevingswetbesluit>
      <versie>0.98.1-kern</versie>
      <titel>Toelichting op attributen en waardelijsten</titel>
      <niveau>5</niveau>
      <checksum>03b810617d9773d96c18065ab940c93d</checksum>
   </document>
   <document index="87">
      <naam>087_Toepassing_presentatiemodel.docx</naam>
      <omgevingswetbesluit id="ovi">omgevingsvisie</omgevingswetbesluit>
      <versie>0.98.1-kern</versie>
      <titel>Toepassing presentatiemodel</titel>
      <niveau>5</niveau>
      <checksum>69a6197deba77f0c5296052b1c79eb20</checksum>
   </document>
   <document index="88">
      <naam>141_Van_plan_tot_publicatie.docx</naam>
      <omgevingswetbesluit id="bt">basistekst</omgevingswetbesluit>
      <versie>0.98.1-kern</versie>
      <titel>Van plan tot publicatie</titel>
      <niveau>2</niveau>
      <checksum>ad9ae15e60cd868fda00aae4b9e99100</checksum>
   </document>
   <document index="89">
      <naam>089_Het_aanleverproces.docx</naam>
      <omgevingswetbesluit id="ovi">omgevingsvisie</omgevingswetbesluit>
      <versie>0.98.1-kern</versie>
      <titel>Het aanleverproces</titel>
      <niveau>3</niveau>
      <checksum>4d86fe980048addfff55c2fd5d4e9cb8</checksum>
      <afbeelding index="1">
         <naam>image_e96d5db5424b04f7d5aa6fa4c77626f8.png</naam>
         <type>png</type>
         <checksum>e96d5db5424b04f7d5aa6fa4c77626f8</checksum>
      </afbeelding>
   </document>
   <document index="90">
      <naam>143_Raadplegen.docx</naam>
      <omgevingswetbesluit id="bt">basistekst</omgevingswetbesluit>
      <versie>0.98.1-kern</versie>
      <titel>Raadplegen</titel>
      <niveau>3</niveau>
      <checksum>8e6f0747cdd29a39f28eeb2fe67e1bbe</checksum>
   </document>
   <document index="91">
      <naam>144_Raadplegen_in_het_officiele_publicatieblad.docx</naam>
      <omgevingswetbesluit id="bt">basistekst</omgevingswetbesluit>
      <versie>0.98.1-kern</versie>
      <titel>Raadplegen in het officiële publicatieblad</titel>
      <niveau>4</niveau>
      <checksum>0fc539ce7788701f4677fc31845a0534</checksum>
   </document>
   <document index="92">
      <naam>092_Raadplegen_in_DSO-LV.docx</naam>
      <omgevingswetbesluit id="ovi">omgevingsvisie</omgevingswetbesluit>
      <versie>0.98.1-kern</versie>
      <titel>Raadplegen in DSO-LV</titel>
      <niveau>4</niveau>
      <checksum>c75686914caf2f39550aa54116680ed6</checksum>
   </document>
   <document index="93">
      <naam>146_Bijlagen.docx</naam>
      <omgevingswetbesluit id="bt">basistekst</omgevingswetbesluit>
      <versie>0.98.1-kern</versie>
      <titel>Bijlagen</titel>
      <niveau>1</niveau>
      <checksum>8e15882c9cdf73ec586a1849cbbf98b2</checksum>
   </document>
   <document index="94">
      <naam>147_Ontwerpkeuzen.docx</naam>
      <omgevingswetbesluit id="bt">basistekst</omgevingswetbesluit>
      <versie>0.98.1-kern</versie>
      <titel>Ontwerpkeuzen</titel>
      <niveau>6</niveau>
      <checksum>48563baaf568cacc647169bcad805385</checksum>
   </document>
</manifest>
